simulation/qsim/Top_DAC.msim.vcd
$comment
	File created using the following command:
		vcd file Top_DAC.msim.vcd -direction
$end
$date
	Thu Nov 12 19:23:33 2020
$end
$version
	ModelSim Version 10.1d
$end
$timescale
	1ps
$end
$scope module Top_DAC_vlg_vec_tst $end
$var reg 1 ! CLK $end
$var wire 1 " BCK $end
$var wire 1 # DIN $end
$var wire 1 $ LCK $end
$var wire 1 % sampler $end
$scope module i1 $end
$var wire 1 & gnd $end
$var wire 1 ' vcc $end
$var wire 1 ( unknown $end
$var tri1 1 ) devclrn $end
$var tri1 1 * devpor $end
$var tri1 1 + devoe $end
$var wire 1 , BCK~output_o $end
$var wire 1 - DIN~output_o $end
$var wire 1 . LCK~output_o $end
$var wire 1 / CLK~input_o $end
$var wire 1 0 CLK~inputclkctrl_outclk $end
$var wire 1 1 U0|Add0~0_combout $end
$var wire 1 2 U0|count~1_combout $end
$var wire 1 3 U0|Add0~1 $end
$var wire 1 4 U0|Add0~2_combout $end
$var wire 1 5 U0|count~2_combout $end
$var wire 1 6 U0|Add0~3 $end
$var wire 1 7 U0|Add0~4_combout $end
$var wire 1 8 U0|count~0_combout $end
$var wire 1 9 U0|Add0~5 $end
$var wire 1 : U0|Add0~6_combout $end
$var wire 1 ; U0|Add0~7 $end
$var wire 1 < U0|Add0~8_combout $end
$var wire 1 = U0|Add0~9 $end
$var wire 1 > U0|Add0~10_combout $end
$var wire 1 ? U0|Add0~11 $end
$var wire 1 @ U0|Add0~12_combout $end
$var wire 1 A U0|Add0~13 $end
$var wire 1 B U0|Add0~14_combout $end
$var wire 1 C U0|Equal0~1_combout $end
$var wire 1 D U0|Add0~15 $end
$var wire 1 E U0|Add0~16_combout $end
$var wire 1 F U0|Add0~17 $end
$var wire 1 G U0|Add0~18_combout $end
$var wire 1 H U0|Add0~19 $end
$var wire 1 I U0|Add0~20_combout $end
$var wire 1 J U0|Add0~21 $end
$var wire 1 K U0|Add0~22_combout $end
$var wire 1 L U0|Add0~23 $end
$var wire 1 M U0|Add0~24_combout $end
$var wire 1 N U0|Add0~25 $end
$var wire 1 O U0|Add0~26_combout $end
$var wire 1 P U0|Add0~27 $end
$var wire 1 Q U0|Add0~28_combout $end
$var wire 1 R U0|Add0~29 $end
$var wire 1 S U0|Add0~30_combout $end
$var wire 1 T U0|Equal0~3_combout $end
$var wire 1 U U0|Equal0~0_combout $end
$var wire 1 V U0|Equal0~2_combout $end
$var wire 1 W U0|Equal0~4_combout $end
$var wire 1 X U0|Add0~31 $end
$var wire 1 Y U0|Add0~32_combout $end
$var wire 1 Z U0|Add0~33 $end
$var wire 1 [ U0|Add0~34_combout $end
$var wire 1 \ U0|Add0~35 $end
$var wire 1 ] U0|Add0~36_combout $end
$var wire 1 ^ U0|Add0~37 $end
$var wire 1 _ U0|Add0~38_combout $end
$var wire 1 ` U0|Add0~39 $end
$var wire 1 a U0|Add0~40_combout $end
$var wire 1 b U0|Add0~41 $end
$var wire 1 c U0|Add0~42_combout $end
$var wire 1 d U0|Add0~43 $end
$var wire 1 e U0|Add0~44_combout $end
$var wire 1 f U0|Add0~45 $end
$var wire 1 g U0|Add0~46_combout $end
$var wire 1 h U0|Equal0~6_combout $end
$var wire 1 i U0|Equal0~5_combout $end
$var wire 1 j U0|Equal0~7_combout $end
$var wire 1 k U0|Add0~47 $end
$var wire 1 l U0|Add0~48_combout $end
$var wire 1 m U0|Add0~49 $end
$var wire 1 n U0|Add0~50_combout $end
$var wire 1 o U0|Add0~51 $end
$var wire 1 p U0|Add0~52_combout $end
$var wire 1 q U0|Add0~53 $end
$var wire 1 r U0|Add0~54_combout $end
$var wire 1 s U0|Equal0~8_combout $end
$var wire 1 t U0|Add0~55 $end
$var wire 1 u U0|Add0~56_combout $end
$var wire 1 v U0|Add0~57 $end
$var wire 1 w U0|Add0~58_combout $end
$var wire 1 x U0|Add0~59 $end
$var wire 1 y U0|Add0~60_combout $end
$var wire 1 z U0|Add0~61 $end
$var wire 1 { U0|Add0~62_combout $end
$var wire 1 | U0|Equal0~9_combout $end
$var wire 1 } U0|Equal0~10_combout $end
$var wire 1 ~ U0|temp~0_combout $end
$var wire 1 !! U0|temp~feeder_combout $end
$var wire 1 "! U0|temp~q $end
$var wire 1 #! U0|temp~clkctrl_outclk $end
$var wire 1 $! U2|count[0]~4_combout $end
$var wire 1 %! U2|count~1_combout $end
$var wire 1 &! U2|count~0_combout $end
$var wire 1 '! U2|count~2_combout $end
$var wire 1 (! U1|Add0~0_combout $end
$var wire 1 )! U1|Add0~1 $end
$var wire 1 *! U1|Add0~2_combout $end
$var wire 1 +! U1|Add0~3 $end
$var wire 1 ,! U1|Add0~4_combout $end
$var wire 1 -! U1|Add0~5 $end
$var wire 1 .! U1|Add0~6_combout $end
$var wire 1 /! U1|Add0~7 $end
$var wire 1 0! U1|Add0~8_combout $end
$var wire 1 1! U1|Add0~9 $end
$var wire 1 2! U1|Add0~10_combout $end
$var wire 1 3! U1|Add0~11 $end
$var wire 1 4! U1|Add0~12_combout $end
$var wire 1 5! U2|Mux0~7_combout $end
$var wire 1 6! U2|Mux0~8_combout $end
$var wire 1 7! U1|Add0~13 $end
$var wire 1 8! U1|Add0~14_combout $end
$var wire 1 9! U2|Mux0~0_combout $end
$var wire 1 :! U2|Mux0~1_combout $end
$var wire 1 ;! U1|Add0~15 $end
$var wire 1 <! U1|Add0~16_combout $end
$var wire 1 =! U1|Add0~17 $end
$var wire 1 >! U1|Add0~18_combout $end
$var wire 1 ?! U1|Add0~19 $end
$var wire 1 @! U1|Add0~20_combout $end
$var wire 1 A! U1|Add0~21 $end
$var wire 1 B! U1|Add0~22_combout $end
$var wire 1 C! U1|Add0~23 $end
$var wire 1 D! U1|Add0~24_combout $end
$var wire 1 E! U1|Add0~25 $end
$var wire 1 F! U1|Add0~26_combout $end
$var wire 1 G! U1|Add0~27 $end
$var wire 1 H! U1|Add0~28_combout $end
$var wire 1 I! U2|Mux0~2_combout $end
$var wire 1 J! U2|Mux0~3_combout $end
$var wire 1 K! U1|Equal0~1_combout $end
$var wire 1 L! U1|Equal0~3_combout $end
$var wire 1 M! U1|Equal0~0_combout $end
$var wire 1 N! U1|Equal0~2_combout $end
$var wire 1 O! U1|Equal0~4_combout $end
$var wire 1 P! U1|Add0~29 $end
$var wire 1 Q! U1|Add0~31 $end
$var wire 1 R! U1|Add0~32_combout $end
$var wire 1 S! U1|Add0~33 $end
$var wire 1 T! U1|Add0~34_combout $end
$var wire 1 U! U1|Add0~35 $end
$var wire 1 V! U1|Add0~36_combout $end
$var wire 1 W! U1|Add0~37 $end
$var wire 1 X! U1|Add0~38_combout $end
$var wire 1 Y! U1|Add0~39 $end
$var wire 1 Z! U1|Add0~40_combout $end
$var wire 1 [! U1|Add0~41 $end
$var wire 1 \! U1|Add0~42_combout $end
$var wire 1 ]! U1|Add0~43 $end
$var wire 1 ^! U1|Add0~44_combout $end
$var wire 1 _! U1|Add0~45 $end
$var wire 1 `! U1|Add0~46_combout $end
$var wire 1 a! U1|Add0~47 $end
$var wire 1 b! U1|Add0~48_combout $end
$var wire 1 c! U1|Add0~49 $end
$var wire 1 d! U1|Add0~50_combout $end
$var wire 1 e! U1|Add0~51 $end
$var wire 1 f! U1|Add0~52_combout $end
$var wire 1 g! U1|Add0~53 $end
$var wire 1 h! U1|Add0~54_combout $end
$var wire 1 i! U1|Equal0~7_combout $end
$var wire 1 j! U1|Equal0~6_combout $end
$var wire 1 k! U1|Add0~55 $end
$var wire 1 l! U1|Add0~56_combout $end
$var wire 1 m! U1|Add0~57 $end
$var wire 1 n! U1|Add0~58_combout $end
$var wire 1 o! U1|Add0~59 $end
$var wire 1 p! U1|Add0~60_combout $end
$var wire 1 q! U1|Add0~61 $end
$var wire 1 r! U1|Add0~62_combout $end
$var wire 1 s! U1|Equal0~8_combout $end
$var wire 1 t! U1|Equal0~5_combout $end
$var wire 1 u! U1|Equal0~9_combout $end
$var wire 1 v! U1|Add0~30_combout $end
$var wire 1 w! U1|count~0_combout $end
$var wire 1 x! U2|Mux0~4_combout $end
$var wire 1 y! U2|Mux0~5_combout $end
$var wire 1 z! U2|Mux0~6_combout $end
$var wire 1 {! U2|Mux0~9_combout $end
$var wire 1 |! U2|serial_data_out~q $end
$var wire 1 }! U3|count[0]~32_combout $end
$var wire 1 ~! U3|count[0]~33 $end
$var wire 1 !" U3|count[1]~34_combout $end
$var wire 1 "" U3|count[1]~35 $end
$var wire 1 #" U3|count[2]~36_combout $end
$var wire 1 $" U3|count[2]~37 $end
$var wire 1 %" U3|count[3]~38_combout $end
$var wire 1 &" U3|count[3]~39 $end
$var wire 1 '" U3|count[4]~40_combout $end
$var wire 1 (" U3|count[4]~41 $end
$var wire 1 )" U3|count[5]~42_combout $end
$var wire 1 *" U3|count[5]~43 $end
$var wire 1 +" U3|count[6]~44_combout $end
$var wire 1 ," U3|count[6]~45 $end
$var wire 1 -" U3|count[7]~46_combout $end
$var wire 1 ." U3|count[7]~47 $end
$var wire 1 /" U3|count[8]~48_combout $end
$var wire 1 0" U3|count[8]~49 $end
$var wire 1 1" U3|count[9]~50_combout $end
$var wire 1 2" U3|count[9]~51 $end
$var wire 1 3" U3|count[10]~52_combout $end
$var wire 1 4" U3|count[10]~53 $end
$var wire 1 5" U3|count[11]~54_combout $end
$var wire 1 6" U3|count[11]~55 $end
$var wire 1 7" U3|count[12]~56_combout $end
$var wire 1 8" U3|count[12]~57 $end
$var wire 1 9" U3|count[13]~58_combout $end
$var wire 1 :" U3|count[13]~59 $end
$var wire 1 ;" U3|count[14]~60_combout $end
$var wire 1 <" U3|count[14]~61 $end
$var wire 1 =" U3|count[15]~62_combout $end
$var wire 1 >" U3|count[15]~63 $end
$var wire 1 ?" U3|count[16]~64_combout $end
$var wire 1 @" U3|count[16]~65 $end
$var wire 1 A" U3|count[17]~66_combout $end
$var wire 1 B" U3|count[17]~67 $end
$var wire 1 C" U3|count[18]~68_combout $end
$var wire 1 D" U3|count[18]~69 $end
$var wire 1 E" U3|count[19]~70_combout $end
$var wire 1 F" U3|count[19]~71 $end
$var wire 1 G" U3|count[20]~72_combout $end
$var wire 1 H" U3|count[20]~73 $end
$var wire 1 I" U3|count[21]~74_combout $end
$var wire 1 J" U3|count[21]~75 $end
$var wire 1 K" U3|count[22]~76_combout $end
$var wire 1 L" U3|count[22]~77 $end
$var wire 1 M" U3|count[23]~78_combout $end
$var wire 1 N" U3|count[23]~79 $end
$var wire 1 O" U3|count[24]~80_combout $end
$var wire 1 P" U3|count[24]~81 $end
$var wire 1 Q" U3|count[25]~82_combout $end
$var wire 1 R" U3|count[25]~83 $end
$var wire 1 S" U3|count[26]~84_combout $end
$var wire 1 T" U3|count[26]~85 $end
$var wire 1 U" U3|count[27]~86_combout $end
$var wire 1 V" U3|count[27]~87 $end
$var wire 1 W" U3|count[28]~88_combout $end
$var wire 1 X" U3|count[28]~89 $end
$var wire 1 Y" U3|count[29]~90_combout $end
$var wire 1 Z" U3|count[29]~91 $end
$var wire 1 [" U3|count[30]~92_combout $end
$var wire 1 \" U3|count[30]~93 $end
$var wire 1 ]" U3|count[31]~94_combout $end
$var wire 1 ^" U3|LessThan0~5_combout $end
$var wire 1 _" U3|LessThan0~0_combout $end
$var wire 1 `" U3|LessThan0~1_combout $end
$var wire 1 a" U3|LessThan0~2_combout $end
$var wire 1 b" U3|LessThan0~3_combout $end
$var wire 1 c" U3|LessThan0~4_combout $end
$var wire 1 d" U3|LessThan0~6_combout $end
$var wire 1 e" U3|LessThan0~7_combout $end
$var wire 1 f" U3|LessThan0~8_combout $end
$var wire 1 g" U3|LR~0_combout $end
$var wire 1 h" U3|LR~q $end
$var wire 1 i" U3|count [31] $end
$var wire 1 j" U3|count [30] $end
$var wire 1 k" U3|count [29] $end
$var wire 1 l" U3|count [28] $end
$var wire 1 m" U3|count [27] $end
$var wire 1 n" U3|count [26] $end
$var wire 1 o" U3|count [25] $end
$var wire 1 p" U3|count [24] $end
$var wire 1 q" U3|count [23] $end
$var wire 1 r" U3|count [22] $end
$var wire 1 s" U3|count [21] $end
$var wire 1 t" U3|count [20] $end
$var wire 1 u" U3|count [19] $end
$var wire 1 v" U3|count [18] $end
$var wire 1 w" U3|count [17] $end
$var wire 1 x" U3|count [16] $end
$var wire 1 y" U3|count [15] $end
$var wire 1 z" U3|count [14] $end
$var wire 1 {" U3|count [13] $end
$var wire 1 |" U3|count [12] $end
$var wire 1 }" U3|count [11] $end
$var wire 1 ~" U3|count [10] $end
$var wire 1 !# U3|count [9] $end
$var wire 1 "# U3|count [8] $end
$var wire 1 ## U3|count [7] $end
$var wire 1 $# U3|count [6] $end
$var wire 1 %# U3|count [5] $end
$var wire 1 &# U3|count [4] $end
$var wire 1 '# U3|count [3] $end
$var wire 1 (# U3|count [2] $end
$var wire 1 )# U3|count [1] $end
$var wire 1 *# U3|count [0] $end
$var wire 1 +# U2|count [4] $end
$var wire 1 ,# U2|count [3] $end
$var wire 1 -# U2|count [2] $end
$var wire 1 .# U2|count [1] $end
$var wire 1 /# U2|count [0] $end
$var wire 1 0# U0|count [31] $end
$var wire 1 1# U0|count [30] $end
$var wire 1 2# U0|count [29] $end
$var wire 1 3# U0|count [28] $end
$var wire 1 4# U0|count [27] $end
$var wire 1 5# U0|count [26] $end
$var wire 1 6# U0|count [25] $end
$var wire 1 7# U0|count [24] $end
$var wire 1 8# U0|count [23] $end
$var wire 1 9# U0|count [22] $end
$var wire 1 :# U0|count [21] $end
$var wire 1 ;# U0|count [20] $end
$var wire 1 <# U0|count [19] $end
$var wire 1 =# U0|count [18] $end
$var wire 1 ># U0|count [17] $end
$var wire 1 ?# U0|count [16] $end
$var wire 1 @# U0|count [15] $end
$var wire 1 A# U0|count [14] $end
$var wire 1 B# U0|count [13] $end
$var wire 1 C# U0|count [12] $end
$var wire 1 D# U0|count [11] $end
$var wire 1 E# U0|count [10] $end
$var wire 1 F# U0|count [9] $end
$var wire 1 G# U0|count [8] $end
$var wire 1 H# U0|count [7] $end
$var wire 1 I# U0|count [6] $end
$var wire 1 J# U0|count [5] $end
$var wire 1 K# U0|count [4] $end
$var wire 1 L# U0|count [3] $end
$var wire 1 M# U0|count [2] $end
$var wire 1 N# U0|count [1] $end
$var wire 1 O# U0|count [0] $end
$var wire 1 P# U1|count [31] $end
$var wire 1 Q# U1|count [30] $end
$var wire 1 R# U1|count [29] $end
$var wire 1 S# U1|count [28] $end
$var wire 1 T# U1|count [27] $end
$var wire 1 U# U1|count [26] $end
$var wire 1 V# U1|count [25] $end
$var wire 1 W# U1|count [24] $end
$var wire 1 X# U1|count [23] $end
$var wire 1 Y# U1|count [22] $end
$var wire 1 Z# U1|count [21] $end
$var wire 1 [# U1|count [20] $end
$var wire 1 \# U1|count [19] $end
$var wire 1 ]# U1|count [18] $end
$var wire 1 ^# U1|count [17] $end
$var wire 1 _# U1|count [16] $end
$var wire 1 `# U1|count [15] $end
$var wire 1 a# U1|count [14] $end
$var wire 1 b# U1|count [13] $end
$var wire 1 c# U1|count [12] $end
$var wire 1 d# U1|count [11] $end
$var wire 1 e# U1|count [10] $end
$var wire 1 f# U1|count [9] $end
$var wire 1 g# U1|count [8] $end
$var wire 1 h# U1|count [7] $end
$var wire 1 i# U1|count [6] $end
$var wire 1 j# U1|count [5] $end
$var wire 1 k# U1|count [4] $end
$var wire 1 l# U1|count [3] $end
$var wire 1 m# U1|count [2] $end
$var wire 1 n# U1|count [1] $end
$var wire 1 o# U1|count [0] $end
$upscope $end
$upscope $end
$enddefinitions $end
#0
$dumpvars
0!
0"
0#
0$
x%
0&
1'
x(
1)
1*
1+
0,
0-
0.
0/
00
01
12
13
14
15
16
07
08
09
0:
1;
0<
0=
0>
1?
0@
0A
0B
1C
1D
0E
0F
0G
1H
0I
0J
0K
1L
0M
0N
0O
1P
0Q
0R
0S
1T
0U
1V
0W
1X
0Y
0Z
0[
1\
0]
0^
0_
1`
0a
0b
0c
1d
0e
0f
0g
1h
1i
1j
1k
0l
0m
0n
1o
0p
0q
0r
1s
1t
0u
0v
0w
1x
0y
0z
0{
1|
0}
0~
0!!
0"!
0#!
1$!
0%!
0&!
0'!
1(!
0)!
0*!
1+!
0,!
0-!
0.!
1/!
00!
01!
02!
13!
04!
05!
06!
07!
08!
09!
0:!
1;!
0<!
0=!
0>!
1?!
0@!
0A!
0B!
1C!
0D!
0E!
0F!
1G!
0H!
0I!
0J!
0K!
0L!
0M!
0N!
0O!
0P!
1Q!
0R!
0S!
0T!
1U!
0V!
0W!
0X!
1Y!
0Z!
0[!
0\!
1]!
0^!
0_!
0`!
1a!
0b!
0c!
0d!
1e!
0f!
0g!
0h!
1i!
1j!
1k!
0l!
0m!
0n!
1o!
0p!
0q!
0r!
1s!
1t!
1u!
0v!
0w!
0x!
0y!
0z!
0{!
0|!
1}!
0~!
0!"
1""
0#"
0$"
0%"
1&"
0'"
0("
0)"
1*"
0+"
0,"
0-"
1."
0/"
00"
01"
12"
03"
04"
05"
16"
07"
08"
09"
1:"
0;"
0<"
0="
1>"
0?"
0@"
0A"
1B"
0C"
0D"
0E"
1F"
0G"
0H"
0I"
1J"
0K"
0L"
0M"
1N"
0O"
0P"
0Q"
1R"
0S"
0T"
0U"
1V"
0W"
0X"
0Y"
1Z"
0["
0\"
0]"
0^"
0_"
0`"
0a"
0b"
0c"
0d"
0e"
0f"
0g"
0h"
0*#
0)#
0(#
0'#
0&#
0%#
0$#
0##
0"#
0!#
0~"
0}"
0|"
0{"
0z"
0y"
0x"
0w"
0v"
0u"
0t"
0s"
0r"
0q"
0p"
0o"
0n"
0m"
0l"
0k"
0j"
0i"
0/#
0.#
0-#
0,#
z+#
0O#
0N#
0M#
0L#
0K#
0J#
0I#
0H#
0G#
0F#
0E#
0D#
0C#
0B#
0A#
0@#
0?#
0>#
0=#
0<#
0;#
0:#
09#
08#
07#
06#
05#
04#
03#
02#
01#
00#
0o#
0n#
0m#
0l#
0k#
0j#
0i#
0h#
0g#
0f#
0e#
0d#
0c#
0b#
0a#
0`#
0_#
0^#
0]#
0\#
0[#
0Z#
0Y#
0X#
0W#
0V#
0U#
0T#
0S#
0R#
0Q#
0P#
$end
#10000
1!
1/
10
0%
1N#
1O#
06
04
03
11
17
05
16
14
02
18
07
15
08
#20000
0!
0/
00
1%
#30000
1!
1/
10
0%
0O#
13
01
06
04
12
17
05
18
#40000
0!
0/
00
1%
#50000
1!
1/
10
0%
1M#
0N#
1O#
19
07
16
14
03
11
1:
08
09
17
15
04
02
0:
18
05
#60000
0!
0/
00
1%
#70000
1!
1/
10
0%
0O#
1U
13
01
1W
14
12
1}
15
1~
08
05
02
1!!
#80000
0!
0/
00
1%
#90000
1!
1/
10
0%
0M#
1"!
1#!
0U
07
0~
1,
1"
0W
0!!
0}
1~
15
12
1!!
#100000
0!
0/
00
1%
#110000
1!
1/
10
0%
1N#
1O#
06
04
03
11
17
05
16
14
02
18
07
15
08
#120000
0!
0/
00
1%
#130000
1!
1/
10
0%
0O#
13
01
06
04
12
17
05
18
#140000
0!
0/
00
1%
#150000
1!
1/
10
0%
1M#
0N#
1O#
19
07
16
14
03
11
1:
08
09
17
15
04
02
0:
18
05
#160000
0!
0/
00
1%
#170000
1!
1/
10
0%
0O#
1U
13
01
1W
14
12
1}
15
0~
08
05
02
0!!
#180000
0!
0/
00
1%
#190000
1!
1/
10
0%
0M#
0"!
0#!
0U
07
1~
0,
0"
0W
1!!
0}
0~
15
12
0!!
1/#
1o#
1*#
1%!
0$!
1)!
0(!
1~!
0}!
1*!
1!"
#200000
0!
0/
00
1%
#210000
1!
1/
10
0%
1N#
1O#
06
04
03
11
17
05
16
14
02
18
07
15
08
#220000
0!
0/
00
1%
#230000
1!
1/
10
0%
0O#
13
01
06
04
12
17
05
18
#240000
0!
0/
00
1%
#250000
1!
1/
10
0%
1M#
0N#
1O#
19
07
16
14
03
11
1:
08
09
17
15
04
02
0:
18
05
#260000
0!
0/
00
1%
#270000
1!
1/
10
0%
0O#
1U
13
01
1W
14
12
1}
15
1~
08
05
02
1!!
#280000
0!
0/
00
1%
#290000
1!
1/
10
0%
0M#
1"!
1#!
0U
07
0~
1,
1"
0W
0!!
0}
1~
15
12
1!!
#300000
0!
0/
00
1%
#310000
1!
1/
10
0%
1N#
1O#
06
04
03
11
17
05
16
14
02
18
07
15
08
#320000
0!
0/
00
1%
#330000
1!
1/
10
0%
0O#
13
01
06
04
12
17
05
18
#340000
0!
0/
00
1%
#350000
1!
1/
10
0%
1M#
0N#
1O#
19
07
16
14
03
11
1:
08
09
17
15
04
02
0:
18
05
#360000
0!
0/
00
1%
#370000
1!
1/
10
0%
0O#
1U
13
01
1W
14
12
1}
15
0~
08
05
02
0!!
#380000
0!
0/
00
1%
#390000
1!
1/
10
0%
0M#
0"!
0#!
0U
07
1~
0,
0"
0W
1!!
0}
0~
15
12
0!!
0/#
1.#
0o#
1n#
0*#
1)#
1$!
0)!
1(!
0+!
0*!
0~!
1}!
0""
0!"
1+!
1*!
1,!
1""
1!"
1#"
0,!
0#"
#400000
0!
0/
00
1%
#410000
1!
1/
10
0%
1N#
1O#
06
04
03
11
17
05
16
14
02
18
07
15
08
#420000
0!
0/
00
1%
#430000
1!
1/
10
0%
0O#
13
01
06
04
12
17
05
18
#440000
0!
0/
00
1%
#450000
1!
1/
10
0%
1M#
0N#
1O#
19
07
16
14
03
11
1:
08
09
17
15
04
02
0:
18
05
#460000
0!
0/
00
1%
#470000
1!
1/
10
0%
0O#
1U
13
01
1W
14
12
1}
15
1~
08
05
02
1!!
#480000
0!
0/
00
1%
#490000
1!
1/
10
0%
0M#
1"!
1#!
0U
07
0~
1,
1"
0W
0!!
0}
1~
15
12
1!!
#500000
0!
0/
00
1%
#510000
1!
1/
10
0%
1N#
1O#
06
04
03
11
17
05
16
14
02
18
07
15
08
#520000
0!
0/
00
1%
#530000
1!
1/
10
0%
0O#
13
01
06
04
12
17
05
18
#540000
0!
0/
00
1%
#550000
1!
1/
10
0%
1M#
0N#
1O#
19
07
16
14
03
11
1:
08
09
17
15
04
02
0:
18
05
#560000
0!
0/
00
1%
#570000
1!
1/
10
0%
0O#
1U
13
01
1W
14
12
1}
15
0~
08
05
02
0!!
#580000
0!
0/
00
1%
#590000
1!
1/
10
0%
0M#
0"!
0#!
0U
07
1~
0,
0"
0W
1!!
0}
0~
15
12
0!!
1/#
1o#
1*#
1&!
0%!
0$!
1)!
0(!
1~!
0}!
0+!
0*!
0""
0!"
1,!
1#"
#600000
0!
0/
00
1%
#610000
1!
1/
10
0%
1N#
1O#
06
04
03
11
17
05
16
14
02
18
07
15
08
#620000
0!
0/
00
1%
#630000
1!
1/
10
0%
0O#
13
01
06
04
12
17
05
18
#640000
0!
0/
00
1%
#650000
1!
1/
10
0%
1M#
0N#
1O#
19
07
16
14
03
11
1:
08
09
17
15
04
02
0:
18
05
#660000
0!
0/
00
1%
#670000
1!
1/
10
0%
0O#
1U
13
01
1W
14
12
1}
15
1~
08
05
02
1!!
#680000
0!
0/
00
1%
#690000
1!
1/
10
0%
0M#
1"!
1#!
0U
07
0~
1,
1"
0W
0!!
0}
1~
15
12
1!!
#700000
0!
0/
00
1%
#710000
1!
1/
10
0%
1N#
1O#
06
04
03
11
17
05
16
14
02
18
07
15
08
#720000
0!
0/
00
1%
#730000
1!
1/
10
0%
0O#
13
01
06
04
12
17
05
18
#740000
0!
0/
00
1%
#750000
1!
1/
10
0%
1M#
0N#
1O#
19
07
16
14
03
11
1:
08
09
17
15
04
02
0:
18
05
#760000
0!
0/
00
1%
#770000
1!
1/
10
0%
0O#
1U
13
01
1W
14
12
1}
15
0~
08
05
02
0!!
#780000
0!
0/
00
1%
#790000
1!
1/
10
0%
0M#
0"!
0#!
0U
07
1~
0,
0"
0W
1!!
0}
0~
15
12
0!!
0/#
0.#
1-#
0o#
0n#
1m#
0*#
0)#
1(#
1$!
15!
0)!
1(!
1+!
1*!
1-!
0,!
0~!
1}!
1""
1!"
1$"
0#"
16!
0*!
0-!
1,!
1.!
0!"
0$"
1#"
1%"
0.!
0%"
#800000
0!
0/
00
1%
#810000
1!
1/
10
0%
1N#
1O#
06
04
03
11
17
05
16
14
02
18
07
15
08
#820000
0!
0/
00
1%
#830000
1!
1/
10
0%
0O#
13
01
06
04
12
17
05
18
#840000
0!
0/
00
1%
#850000
1!
1/
10
0%
1M#
0N#
1O#
19
07
16
14
03
11
1:
08
09
17
15
04
02
0:
18
05
#860000
0!
0/
00
1%
#870000
1!
1/
10
0%
0O#
1U
13
01
1W
14
12
1}
15
1~
08
05
02
1!!
#880000
0!
0/
00
1%
#890000
1!
1/
10
0%
0M#
1"!
1#!
0U
07
0~
1,
1"
0W
0!!
0}
1~
15
12
1!!
#900000
0!
0/
00
1%
#910000
1!
1/
10
0%
1N#
1O#
06
04
03
11
17
05
16
14
02
18
07
15
08
#920000
0!
0/
00
1%
#930000
1!
1/
10
0%
0O#
13
01
06
04
12
17
05
18
#940000
0!
0/
00
1%
#950000
1!
1/
10
0%
1M#
0N#
1O#
19
07
16
14
03
11
1:
08
09
17
15
04
02
0:
18
05
#960000
0!
0/
00
1%
#970000
1!
1/
10
0%
0O#
1U
13
01
1W
14
12
1}
15
0~
08
05
02
0!!
#980000
0!
0/
00
1%
#990000
1!
1/
10
0%
0M#
0"!
0#!
0U
07
1~
0,
0"
0W
1!!
0}
0~
15
12
0!!
1/#
1o#
1*#
1%!
0$!
1)!
0(!
1~!
0}!
1*!
1!"
